…
avg_activity <- activity %>%
  group_by(id) %>%
  summarise(average_steps = mean(total_steps),
  average_distance = mean(total_distance),
  average_light_active_minutes =mean(lightly_active_minutes),
 average_moderate_active_minutes =mean(fairly_active_minutes),
 average_very_active_minutes = mean(very_active_minutes),
 average_sedentary_minutes = mean(sedentary_minutes),
 average_calories = mean(calories))

avg_activity
```

    ## # A tibble: 33 x 8
    ##            id average_steps average_distance average_light_ac~ average_moderate~
    ##         <dbl>         <dbl>            <dbl>             <dbl>             <dbl>
    ##  1 1503960366        12117.            7.81              220.             19.2  
    ##  2 1624580081         5744.            3.91              153.              5.81 
    ##  3 1644430081         7283.            5.30              178.             21.4  
    ##  4 1844505072         2580.            1.71              115.              1.29 
    ##  5 1927972279          916.            0.635              38.6             0.774
    ##  6 2022484408        11371.            8.08              257.             19.4  
    ##  7 2026352035         5567.            3.45              257.              0.258
    ##  8 2320127002         4717.            3.19              198.              2.58 
    ##  9 2347167796         9520.            6.36              252.             20.6  
    ## 10 2873212765         7556.            5.10              308               6.13 
    ## # ... with 23 more rows, and 3 more variables:
    ## #   average_very_active_minutes <dbl>, average_sedentary_minutes <dbl>,
    ## #   average_calories <dbl>

``` r
#table for sleep patterns

avg_sleep <- sleep %>% group_by(id) %>% summarise(average_minutes_slept = mean(total_minutes_asleep), average_sleep_sessions = mean(total_sleep_records), average_time_in_bed = mean(total_time_in_bed))

avg_sleep
```

    ## # A tibble: 24 x 4
    ##            id average_minutes_slept average_sleep_sessions average_time_in_bed
    ##         <dbl>                 <dbl>                  <dbl>               <dbl>
    ##  1 1503960366                  360.                   1.08                383.
    ##  2 1644430081                  294                    1                   346 
    ##  3 1844505072                  652                    1                   961 
    ##  4 1927972279                  417                    1.6                 438.
    ##  5 2026352035                  506.                   1                   538.
    ##  6 2320127002                   61                    1                    69 
    ##  7 2347167796                  447.                   1                   491.
    ##  8 3977333714                  294.                   1.14                461.
    ##  9 4020332650                  349.                   1                   380.
    ## 10 4319703577                  477.                   1.04                502.
    ## # ... with 14 more rows
…
``` r
#calculating the average MET for each user


avg_MET_daily <- MET_daily %>% group_by(id) %>% summarise(average_daily_METs = mean(daily_METs))

avg_MET_daily
```

    ## # A tibble: 33 x 2
    ##            id average_daily_METs
    ##         <dbl>              <dbl>
    ##  1 1503960366             23903.
    ##  2 1624580081             17838.
    ##  3 1644430081             19976.
    ##  4 1844505072             16805.
    ##  5 1927972279             15169.
    ##  6 2022484408             24120.
    ##  7 2026352035             19853.
    ##  8 2320127002             18725.
    ##  9 2347167796             21694.
    ## 10 2873212765             21774.
    ## # ... with 23 more rows
…
